idGare;idLigne;ordre;PDLFond;PDLPoint;vCreation;vMaj;vSuppression
SNCF02206;SNCF_PaysLoire_U;0;0;0;106;0;0
SNCF01206;SNCF_PaysLoire_U;0;0;0;106;0;0
SNCF01208;SNCF_PaysLoire_U;0;0;0;106;0;0
SNCF01209;SNCF_PaysLoire_U;0;0;0;106;0;0
SNCF01543;SNCF_PaysLoire_U;0;0;0;106;0;0
SNCF01544;SNCF_PaysLoire_U;0;0;0;106;0;0
SNCF01546;SNCF_PaysLoire_U;0;0;0;106;0;0
SNCF01572;SNCF_PaysLoire_U;0;0;0;106;0;0
SNCF01583;SNCF_PaysLoire_U;0;0;0;106;0;0
SNCF01590;SNCF_PaysLoire_U;0;0;0;106;0;0
SNCF01595;SNCF_PaysLoire_U;0;0;0;106;0;0
SNCF01601;SNCF_PaysLoire_U;0;0;0;106;0;0
SNCF01604;SNCF_PaysLoire_U;0;0;0;106;0;0
SNCF01606;SNCF_PaysLoire_U;0;0;0;106;0;0
SNCF01610;SNCF_PaysLoire_U;0;0;0;106;0;0
SNCF01611;SNCF_PaysLoire_U;0;0;0;106;0;0
SNCF01617;SNCF_PaysLoire_U;0;0;0;106;0;0
SNCF01619;SNCF_PaysLoire_U;0;0;0;106;0;0
SNCF01622;SNCF_PaysLoire_U;0;0;0;106;0;0
SNCF01628;SNCF_PaysLoire_U;0;0;0;106;0;0
SNCF01632;SNCF_PaysLoire_U;0;0;0;106;0;0
SNCF01636;SNCF_PaysLoire_U;0;0;0;106;0;0
SNCF01662;SNCF_PaysLoire_U;0;0;0;106;0;0
SNCF01663;SNCF_PaysLoire_U;0;0;0;106;0;0
SNCF01755;SNCF_PaysLoire_U;0;0;0;106;0;0
SNCF01890;SNCF_PaysLoire_U;0;0;0;106;0;0
SNCF01897;SNCF_PaysLoire_U;0;0;0;106;0;0
SNCF01900;SNCF_PaysLoire_U;0;0;0;106;0;0
SNCF01902;SNCF_PaysLoire_U;0;0;0;106;0;0
SNCF01528;SNCF_PaysLoire_U;0;0;0;106;0;0
SNCF01530;SNCF_PaysLoire_U;0;0;0;106;0;0
SNCF01532;SNCF_PaysLoire_U;0;0;0;106;0;0
SNCF01541;SNCF_PaysLoire_U;0;0;0;106;0;0
SNCF01549;SNCF_PaysLoire_U;0;0;0;106;0;0
SNCF01550;SNCF_PaysLoire_U;0;0;0;106;0;0
SNCF01578;SNCF_PaysLoire_U;0;0;0;106;0;0
SNCF01599;SNCF_PaysLoire_U;0;0;0;106;0;0
SNCF01603;SNCF_PaysLoire_U;0;0;0;106;0;0
SNCF01608;SNCF_PaysLoire_U;0;0;0;106;0;0
SNCF01613;SNCF_PaysLoire_U;0;0;0;106;0;0
SNCF01623;SNCF_PaysLoire_U;0;0;0;106;0;0
SNCF01631;SNCF_PaysLoire_U;0;0;0;106;0;0
SNCF01635;SNCF_PaysLoire_U;0;0;0;106;0;0
SNCF01637;SNCF_PaysLoire_U;0;0;0;106;0;0
SNCF01638;SNCF_PaysLoire_U;0;0;0;106;0;0
SNCF01756;SNCF_PaysLoire_U;0;0;0;106;0;0
SNCF01892;SNCF_PaysLoire_U;0;0;0;106;0;0
SNCF01898;SNCF_PaysLoire_U;0;0;0;106;0;0
SNCF01901;SNCF_PaysLoire_U;0;0;0;106;0;0
SNCF01907;SNCF_PaysLoire_U;0;0;0;106;0;0
SNCF01908;SNCF_PaysLoire_U;0;0;0;106;0;0
SNCF01909;SNCF_PaysLoire_U;0;0;0;106;0;0
SNCF01910;SNCF_PaysLoire_U;0;0;0;106;0;0
SNCF01916;SNCF_PaysLoire_U;0;0;0;106;0;0
SNCF01888;SNCF_PaysLoire_U;0;0;0;106;0;0
SNCF01889;SNCF_PaysLoire_U;0;0;0;106;0;0
SNCF01903;SNCF_PaysLoire_U;0;0;0;106;0;0
SNCF01905;SNCF_PaysLoire_U;0;0;0;106;0;0
SNCF01906;SNCF_PaysLoire_U;0;0;0;106;0;0
SNCF01526;SNCF_PaysLoire_U;0;0;0;106;0;0
SNCF01531;SNCF_PaysLoire_U;0;0;0;106;0;0
SNCF01545;SNCF_PaysLoire_U;0;0;0;106;0;0
SNCF01548;SNCF_PaysLoire_U;0;0;0;106;0;0
SNCF01573;SNCF_PaysLoire_U;0;0;0;106;0;0
SNCF01576;SNCF_PaysLoire_U;0;0;0;106;0;0
SNCF01577;SNCF_PaysLoire_U;0;0;0;106;0;0
SNCF01579;SNCF_PaysLoire_U;0;0;0;106;0;0
SNCF01581;SNCF_PaysLoire_U;0;0;0;106;0;0
SNCF01582;SNCF_PaysLoire_U;0;0;0;106;0;0
SNCF01584;SNCF_PaysLoire_U;0;0;0;106;0;0
SNCF01585;SNCF_PaysLoire_U;0;0;0;106;0;0
SNCF01587;SNCF_PaysLoire_U;0;0;0;106;0;0
SNCF01588;SNCF_PaysLoire_U;0;0;0;106;0;0
SNCF01594;SNCF_PaysLoire_U;0;0;0;106;0;0
SNCF01596;SNCF_PaysLoire_U;0;0;0;106;0;0
SNCF01597;SNCF_PaysLoire_U;0;0;0;106;0;0
SNCF01600;SNCF_PaysLoire_U;0;0;0;106;0;0
SNCF01602;SNCF_PaysLoire_U;0;0;0;106;0;0
SNCF01607;SNCF_PaysLoire_U;0;0;0;106;0;0
SNCF01612;SNCF_PaysLoire_U;0;0;0;106;0;0
SNCF01615;SNCF_PaysLoire_U;0;0;0;106;0;0
SNCF01618;SNCF_PaysLoire_U;0;0;0;106;0;0
SNCF01625;SNCF_PaysLoire_U;0;0;0;106;0;0
SNCF01626;SNCF_PaysLoire_U;0;0;0;106;0;0
SNCF01627;SNCF_PaysLoire_U;0;0;0;106;0;0
SNCF01629;SNCF_PaysLoire_U;0;0;0;106;0;0
SNCF01633;SNCF_PaysLoire_U;0;0;0;106;0;0
SNCF01634;SNCF_PaysLoire_U;0;0;0;106;0;0
SNCF01639;SNCF_PaysLoire_U;0;0;0;106;0;0
SNCF01640;SNCF_PaysLoire_U;0;0;0;106;0;0
SNCF01891;SNCF_PaysLoire_U;0;0;0;106;0;0
SNCF01893;SNCF_PaysLoire_U;0;0;0;106;0;0
SNCF01894;SNCF_PaysLoire_U;0;0;0;106;0;0
SNCF01895;SNCF_PaysLoire_U;0;0;0;106;0;0
SNCF01896;SNCF_PaysLoire_U;0;0;0;106;0;0
SNCF01904;SNCF_PaysLoire_U;0;0;0;106;0;0
SNCF01917;SNCF_PaysLoire_U;0;0;0;106;0;0
SNCF02102;SNCF_PaysLoire_U;0;0;0;106;0;0
SNCF02103;SNCF_PaysLoire_U;0;0;0;106;0;0
SNCF01911;SNCF_PaysLoire_U;0;0;0;106;0;0
SNCF01913;SNCF_PaysLoire_U;0;0;0;106;0;0
SNCF01915;SNCF_PaysLoire_U;0;0;0;106;0;0
SNCF01589;SNCF_PaysLoire_U;0;0;0;106;0;0
SNCF01593;SNCF_PaysLoire_U;0;0;0;106;0;0
SNCF01598;SNCF_PaysLoire_U;0;0;0;106;0;0
SNCF01609;SNCF_PaysLoire_U;0;0;0;106;0;0
SNCF01614;SNCF_PaysLoire_U;0;0;0;106;0;0
SNCF01616;SNCF_PaysLoire_U;0;0;0;106;0;0
SNCF01620;SNCF_PaysLoire_U;0;0;0;106;0;0
SNCF01621;SNCF_PaysLoire_U;0;0;0;106;0;0
SNCF01624;SNCF_PaysLoire_U;0;0;0;106;0;0
SNCF01630;SNCF_PaysLoire_U;0;0;0;106;0;0
SNCF01643;SNCF_PaysLoire_U;0;0;0;106;0;0
SNCF01661;SNCF_PaysLoire_U;0;0;0;106;0;0
SNCF01912;SNCF_PaysLoire_U;0;0;0;106;0;0
SNCF01914;SNCF_PaysLoire_U;0;0;0;106;0;0
SNCF03209;SNCF_PaysLoire_U;0;0;0;106;0;0
SNCF03085;SNCF_PaysLoire_U;0;0;0;0;0;136
SNCF01527;SNCF_PaysLoire_U;0;0;0;106;0;0
SNCF01529;SNCF_PaysLoire_U;0;0;0;106;0;0
SNCF01538;SNCF_PaysLoire_U;0;0;0;106;0;0
SNCF01539;SNCF_PaysLoire_U;0;0;0;106;0;0
SNCF01540;SNCF_PaysLoire_U;0;0;0;106;0;0
SNCF01574;SNCF_PaysLoire_U;0;0;0;106;0;0
SNCF01575;SNCF_PaysLoire_U;0;0;0;106;0;0
SNCF01580;SNCF_PaysLoire_U;0;0;0;106;0;0
SNCF01586;SNCF_PaysLoire_U;0;0;0;106;0;0
SNCF01591;SNCF_PaysLoire_U;0;0;0;106;0;0
SNCF01592;SNCF_PaysLoire_U;0;0;0;106;0;0
SNCF01605;SNCF_PaysLoire_U;0;0;0;106;0;0
SNCF01641;SNCF_PaysLoire_U;0;0;0;106;0;0
SNCF01642;SNCF_PaysLoire_U;0;0;0;106;0;0
SNCF01207;SNCF_PaysLoire_U;0;0;0;106;0;0
SNCF01536;SNCF_PaysLoire_U;0;0;0;106;0;0
SNCF01537;SNCF_PaysLoire_U;0;0;0;106;0;0
SNCF01547;SNCF_PaysLoire_U;0;0;0;106;0;0
TANStopArea:BDOU;Ligne_TAN1-0;26;11;1;129;132;0
TANStopArea:BJOI;Ligne_TAN1-0;34;2;21;129;132;0
TANStopArea:BLVU;Ligne_TAN1-0;8;22;21;129;132;0
TANStopArea:BOFA;Ligne_TAN1-0;20;11;1;129;132;0
TANStopArea:CNAV;Ligne_TAN1-0;17;11;1;129;132;0
TANStopArea:COMM;Ligne_TAN1-0;19;11;1;129;132;0
TANStopArea:DCAN;Ligne_TAN1-0;21;11;1;129;132;0
TANStopArea:DCFF;Ligne_TAN1-0;15;11;1;129;132;0
TANStopArea:EGLI;Ligne_TAN1-0;14;11;1;129;132;0
TANStopArea:FMIT;Ligne_TAN1-0;1;20;21;129;132;0
TANStopArea:FRAC;Ligne_TAN1-0;4;22;21;129;132;0
TANStopArea:GMAR;Ligne_TAN1-0;16;11;1;129;132;0
SNCF01634;Ligne_TAN1-0;22;11;1;129;132;0
TANStopArea:HALU;Ligne_TAN1-0;31;41;1;0;0;136
TANStopArea:HAVE;Ligne_TAN1-0;33;22;21;129;132;0
TANStopArea:HBLI;Ligne_TAN1-0;25;11;1;129;132;0
TANStopArea:JAME;Ligne_TAN1-0;12;42;11;129;132;0
TANStopArea:JMLI;Ligne_TAN1-0;11;22;21;129;132;0
TANStopArea:LAUR;Ligne_TAN1-0;10;22;21;129;132;0
TANStopArea:LDRE;Ligne_TAN1-0;28;11;1;129;132;0
TANStopArea:MDOU;Ligne_TAN1-0;27;11;1;129;132;0
TANStopArea:MDTH;Ligne_TAN1-0;18;11;1;129;132;0
TANStopArea:MNFA;Ligne_TAN1-0;23;11;1;129;132;0
TANStopArea:MOUT;Ligne_TAN1-0;24;11;1;129;132;0
TANStopArea:NRDA;Ligne_TAN1-0;5;22;21;129;132;0
TANStopArea:PISE;Ligne_TAN1-0;30;11;1;129;132;0
TANStopArea:RAZA;Ligne_TAN1-0;32;24;11;129;132;0
TANStopArea:RMNE;Ligne_TAN1-0;7;22;21;129;132;0
TANStopArea:RROL;Ligne_TAN1-0;9;22;21;129;132;0
TANStopArea:SECH;Ligne_TAN1-0;3;22;21;129;132;0
TANStopArea:SOUI;Ligne_TAN1-0;29;11;1;129;132;0
TANStopArea:TENA;Ligne_TAN1-0;6;22;21;129;132;0
TANStopArea:TMLI;Ligne_TAN1-0;2;22;21;129;132;0
TANStopArea:XBON;Ligne_TAN1-0;13;14;1;129;132;0
TANStopArea:ADEL;Ligne_TAN2-0;20;11;1;129;132;0
TANStopArea:BALI;Ligne_TAN2-0;0;0;0;0;0;132
TANStopArea:BOGE;Ligne_TAN2-0;7;11;1;129;132;0
TANStopArea:BOSI;Ligne_TAN2-0;6;11;1;129;132;0
TANStopArea:CDAN;Ligne_TAN2-0;4;11;1;129;132;0
TANStopArea:COET;Ligne_TAN2-0;0;0;0;0;0;132
TANStopArea:COMM;Ligne_TAN2-0;18;11;1;129;132;0
TANStopArea:CREZ;Ligne_TAN2-0;0;0;0;0;0;132
TANStopArea:CRQU;Ligne_TAN2-0;17;11;1;129;132;0
TANStopArea:DIDE;Ligne_TAN2-0;0;0;0;0;0;132
TANStopArea:ECSU;Ligne_TAN2-0;9;11;1;129;132;0
TANStopArea:FACU;Ligne_TAN2-0;10;11;1;129;132;0
TANStopArea:GDOU;Ligne_TAN2-0;0;0;0;0;0;132
SNCF01633;Ligne_TAN2-0;25;1;1;129;132;0
TANStopArea:HODI;Ligne_TAN2-0;19;11;1;129;132;0
TANStopArea:LCAR;Ligne_TAN2-0;2;11;1;129;132;0
TANStopArea:MAI8;Ligne_TAN2-0;0;0;0;0;0;132
TANStopArea:MGIN;Ligne_TAN2-0;23;11;1;129;132;0
TANStopArea:MICH;Ligne_TAN2-0;12;11;1;129;132;0
TANStopArea:MORH;Ligne_TAN2-0;11;11;1;129;132;0
TANStopArea:MOTE;Ligne_TAN2-0;14;11;1;129;132;0
TANStopArea:NETR;Ligne_TAN2-0;0;0;0;0;0;132
TANStopArea:OGVA;Ligne_TAN2-0;1;10;1;129;132;0
TANStopArea:OTAG;Ligne_TAN2-0;16;11;1;129;132;0
TANStopArea:PIRM;Ligne_TAN2-0;24;11;1;129;132;0
TANStopArea:PROU;Ligne_TAN2-0;0;0;0;0;0;132
TANStopArea:RCAS;Ligne_TAN2-0;3;11;1;129;132;0
TANStopArea:RTSC;Ligne_TAN2-0;8;11;1;129;132;0
TANStopArea:SADU;Ligne_TAN2-0;5;11;1;129;132;0
TANStopArea:SFEL;Ligne_TAN2-0;13;11;1;129;132;0
TANStopArea:SMHI;Ligne_TAN2-0;15;11;1;129;132;0
TANStopArea:TROC;Ligne_TAN2-0;0;0;0;0;0;132
TANStopArea:VGAC;Ligne_TAN2-0;21;11;1;129;132;0
TANStopArea:WATT;Ligne_TAN2-0;22;11;1;129;132;0
TANStopArea:ADEL;Ligne_TAN3-0;19;11;1;129;132;0
TANStopArea:BALI;Ligne_TAN3-0;26;11;1;129;132;0
TANStopArea:BNON;Ligne_TAN3-0;4;11;1;129;132;0
TANStopArea:BRTA;Ligne_TAN3-0;16;11;1;129;132;0
TANStopArea:BSEJ;Ligne_TAN3-0;8;11;1;129;132;0
TANStopArea:COET;Ligne_TAN3-0;31;11;1;129;132;0
TANStopArea:COMM;Ligne_TAN3-0;17;11;1;129;132;0
TANStopArea:CREZ;Ligne_TAN3-0;27;11;1;129;132;0
TANStopArea:DIDE;Ligne_TAN3-0;28;11;1;129;132;0
TANStopArea:FERI;Ligne_TAN3-0;6;11;1;129;132;0
TANStopArea:FFAU;Ligne_TAN3-0;12;11;1;129;132;0
TANStopArea:GDOU;Ligne_TAN3-0;30;11;1;129;132;0
TANStopArea:HODI;Ligne_TAN3-0;18;11;1;129;132;0
TANStopArea:JJNA;Ligne_TAN3-0;15;11;1;129;132;0
TANStopArea:JROS;Ligne_TAN3-0;5;11;1;129;132;0
TANStopArea:LONG;Ligne_TAN3-0;9;11;1;129;132;0
TANStopArea:MAI8;Ligne_TAN3-0;25;11;1;129;132;0
TANStopArea:MGIN;Ligne_TAN3-0;22;11;1;129;132;0
TANStopArea:MPAU;Ligne_TAN3-0;1;10;1;129;132;0
TANStopArea:NETR;Ligne_TAN3-0;32;1;1;129;132;0
TANStopArea:OMRL;Ligne_TAN3-0;3;11;1;129;132;0
TANStopArea:PIRM;Ligne_TAN3-0;23;11;1;129;132;0
TANStopArea:POIT;Ligne_TAN3-0;13;11;1;129;132;0
TANStopArea:PROU;Ligne_TAN3-0;24;11;1;129;132;0
TANStopArea:PSCE;Ligne_TAN3-0;7;11;1;129;132;0
TANStopArea:RVAN;Ligne_TAN3-0;11;11;1;129;132;0
TANStopArea:SILL;Ligne_TAN3-0;2;11;1;129;132;0
TANStopArea:STHR;Ligne_TAN3-0;10;11;1;129;132;0
TANStopArea:TROC;Ligne_TAN3-0;29;11;1;129;132;0
TANStopArea:VGAC;Ligne_TAN3-0;20;11;1;129;132;0
TANStopArea:VIAR;Ligne_TAN3-0;14;11;1;129;132;0
TANStopArea:WATT;Ligne_TAN3-0;21;11;1;129;132;0
SETRAMPLA_ANTAR;Ligne_SETRAMT1-148;24;1;1;129;132;0
SETRAMPLA_CADRA;Ligne_SETRAMT1-148;4;11;1;129;132;0
SETRAMPLA_CAMPU;Ligne_SETRAMT1-148;2;11;1;129;132;0
SETRAMPLA_DURAN;Ligne_SETRAMT1-148;19;11;1;129;132;0
SETRAMPLA_EPERO;Ligne_SETRAMT1-148;9;11;1;129;132;0
SETRAMPLA_GAMBE;Ligne_SETRAMT1-148;7;11;1;129;132;0
SNCF01917;Ligne_SETRAMT1-148;13;11;1;129;132;0
SETRAMPLA_GLONN;Ligne_SETRAMT1-148;21;11;1;129;132;0
SETRAMPLA_GUETT;Ligne_SETRAMT1-148;23;11;1;129;132;0
SETRAMPLA_HAUTE;Ligne_SETRAMT1-148;3;11;1;129;132;0
SETRAMPLA_HOPIT;Ligne_SETRAMT1-148;5;11;1;129;132;0
SETRAMPLA_JAURE;Ligne_SETRAMT1-148;16;11;1;129;132;0
SETRAMPLA_JULES;Ligne_SETRAMT1-148;22;11;1;129;132;0
SETRAMPLA_LAFAY;Ligne_SETRAMT1-148;8;11;1;129;132;0
SETRAMPLA_LECLE;Ligne_SETRAMT1-148;12;11;1;129;132;0
SETRAMPLA_PONTL;Ligne_SETRAMT1-148;18;11;1;129;132;0
SETRAMPLA_PREFE;Ligne_SETRAMT1-148;11;11;1;129;132;0
SETRAMPLA_REPUB;Ligne_SETRAMT1-148;10;11;1;129;132;0
SETRAMPLA_RGOYA;Ligne_SETRAMT1-148;20;11;1;129;132;0
SETRAMPLA_RZOLA;Ligne_SETRAMT1-148;14;11;1;129;132;0
SETRAMPLA_STMAR;Ligne_SETRAMT1-148;17;11;1;129;132;0
SETRAMPLA_THEOD;Ligne_SETRAMT1-148;6;11;1;129;132;0
SETRAMPLA_UNIVE;Ligne_SETRAMT1-148;1;10;1;129;132;0
SETRAMPLA_VIADU;Ligne_SETRAMT1-148;15;11;1;129;132;0
SETRAMPLA_ATLAN;Ligne_SETRAMT2-148;15;11;1;129;132;0
SETRAMPLA_BELLE;Ligne_SETRAMT2-148;1;10;1;129;132;0
SETRAMPLA_CHURC;Ligne_SETRAMT2-148;14;11;1;129;132;0
SETRAMPLA_COMTE;Ligne_SETRAMT2-148;6;11;1;129;132;0
SETRAMPLA_CROIX;Ligne_SETRAMT2-148;4;11;1;129;132;0
SETRAMPLA_EPAUG;Ligne_SETRAMT2-148;17;11;1;129;132;0
SETRAMPLA_ESPAL;Ligne_SETRAMT2-148;18;1;1;129;132;0
SNCF01917;Ligne_SETRAMT2-148;9;11;1;129;132;0
SETRAMPLA_ILEAU;Ligne_SETRAMT2-148;16;11;1;129;132;0
SETRAMPLA_JACOB;Ligne_SETRAMT2-148;5;11;1;129;132;0
SETRAMPLA_JAURE;Ligne_SETRAMT2-148;12;11;1;129;132;0
SETRAMPLA_LECLE;Ligne_SETRAMT2-148;8;11;1;129;132;0
SETRAMPLA_MAILL;Ligne_SETRAMT2-148;3;11;1;129;132;0
SETRAMPLA_PREFE;Ligne_SETRAMT2-148;7;11;1;129;132;0
SETRAMPLA_RZOLA;Ligne_SETRAMT2-148;10;11;1;129;132;0
SETRAMPLA_STMAR;Ligne_SETRAMT2-148;13;11;1;129;132;0
SETRAMPLA_VIADU;Ligne_SETRAMT2-148;11;11;1;129;132;0
SETRAMPLA_ZAMEN;Ligne_SETRAMT2-148;2;11;1;129;132;0
IRIGOzone_ACACIAS;Ligne_IRIGOA;4;11;1;129;132;0
IRIGOzone_ANGERS_-_ROSERAIE;Ligne_IRIGOA;25;1;1;129;132;0
IRIGOzone_AVRILLE_-_ARDENNE;Ligne_IRIGOA;1;10;1;129;132;0
IRIGOzone_BAMAKO;Ligne_IRIGOA;22;11;1;129;132;0
IRIGOzone_BASCULE;Ligne_IRIGOA;2;11;1;129;132;0
IRIGOzone_BERGES_DE_MAINE;Ligne_IRIGOA;13;11;1;129;132;0
IRIGOzone_BOIS_DU_ROY;Ligne_IRIGOA;5;11;1;129;132;0
IRIGOzone_CAPUCINS;Ligne_IRIGOA;11;11;1;129;132;0
IRIGOzone_CHU_-_HOPITAL;Ligne_IRIGOA;12;11;1;129;132;0
IRIGOzone_FOCH_HARAS;Ligne_IRIGOA;18;11;1;129;132;0
IRIGOzone_FOCH_MAISON_BLEUE;Ligne_IRIGOA;17;11;1;129;132;0
IRIGOzone_HAUTS_DE_SAINT_AUBIN;Ligne_IRIGOA;9;11;1;129;132;0
IRIGOzone_JEAN_MOULIN;Ligne_IRIGOA;10;11;1;129;132;0
IRIGOzone_JEAN_VILAR;Ligne_IRIGOA;24;11;1;129;132;0
IRIGOzone_JEAN_XXIII;Ligne_IRIGOA;23;11;1;129;132;0
SNCF01586;Ligne_IRIGOA;19;11;1;129;132;0
IRIGOzone_MOLIERE;Ligne_IRIGOA;15;11;1;0;0;165
IRIGOzone_PLACE_LA_FAYETTE;Ligne_IRIGOA;20;11;1;129;132;0
IRIGOzone_PLATEAU_DE_MAYENNE;Ligne_IRIGOA;6;11;1;129;132;0
IRIGOzone_RALLIEMENT;Ligne_IRIGOA;16;11;1;0;0;165
IRIGOzone_SAINT_GILLES;Ligne_IRIGOA;3;11;1;129;132;0
IRIGOzone_SAINT_SERGE_UNIVERSITE;Ligne_IRIGOA;14;11;1;129;132;0
IRIGOzone_STRASBOURG;Ligne_IRIGOA;21;11;1;129;132;0
IRIGOzone_TERRA_BOTANICA;Ligne_IRIGOA;7;11;1;129;132;0
IRIGOzone_VERNEAU_TRAM;Ligne_IRIGOA;8;11;1;129;132;0
SNCF01209;Ligne_TAN1-0;31;41;1;136;0;0
Transvap01;Transvap_CFTS;1;10;1;138;0;0
Transvap02;Transvap_CFTS;2;11;1;138;0;0
Transvap03;Transvap_CFTS;3;11;1;138;0;0
Transvap04;Transvap_CFTS;4;11;1;138;0;0
SNCF01902;Transvap_CFTS;5;1;1;138;0;0
IRIGO2HDVA;Ligne_IRIGOA;16;11;1;165;0;0
IRIGO2CECO;Ligne_IRIGOA;15;11;1;165;0;0
IRIGO1CONS;Ligne_IRIGOB;12;11;1;165;0;0
IRIGO2BRIS;Ligne_IRIGOB;15;11;1;165;0;0
IRIGO2EURO;Ligne_IRIGOB;17;11;1;165;0;0
IRIGOzone_SAINT_SERGE_UNIVERSITE;Ligne_IRIGOB;10;11;1;165;0;0
IRIGO1DOUT;Ligne_IRIGOB;8;11;1;165;0;0
IRIGOzone_MOLIERE;Ligne_IRIGOB;9;11;1;165;0;0
IRIGO2CROI;Ligne_IRIGOB;14;11;1;165;0;0
IRIGO1ELYS;Ligne_IRIGOB;5;11;1;165;0;0
IRIGO2FARC;Ligne_IRIGOB;6;11;1;165;0;0
IRIGO1BARR;Ligne_IRIGOB;3;11;1;165;0;0
IRIGO2MTAI;Ligne_IRIGOB;13;11;1;165;0;0
IRIGO2CECO;Ligne_IRIGOB;11;11;1;165;0;0
IRIGO2PATT;Ligne_IRIGOB;4;11;1;165;0;0
IRIGO1BBCA;Ligne_IRIGOB;1;10;1;165;0;0
IRIGO2QUAI;Ligne_IRIGOB;7;11;1;165;0;0
IRIGO1MONP;Ligne_IRIGOB;18;1;1;165;0;0
IRIGO1DUNA;Ligne_IRIGOB;16;11;1;165;0;0
IRIGO1BEAU;Ligne_IRIGOB;2;11;1;165;0;0
IRIGOzone_JEAN_XXIII;Ligne_IRIGOC;17;11;1;165;0;0
IRIGOzone_FOCH_HARAS;Ligne_IRIGOC;12;11;1;165;0;0
IRIGOzone_ANGERS_-_ROSERAIE;Ligne_IRIGOC;19;1;1;165;0;0
SNCF01586;Ligne_IRIGOC;13;11;1;165;0;0
IRIGOzone_JEAN_VILAR;Ligne_IRIGOC;18;11;1;165;0;0
IRIGO1DOUT;Ligne_IRIGOC;8;11;1;165;0;0
IRIGOzone_MOLIERE;Ligne_IRIGOC;9;11;1;165;0;0
IRIGOzone_RALLIEMENT;Ligne_IRIGOC;10;11;1;165;0;0
IRIGOzone_BAMAKO;Ligne_IRIGOC;16;11;1;165;0;0
IRIGO1ELYS;Ligne_IRIGOC;5;11;1;165;0;0
IRIGO2FARC;Ligne_IRIGOC;6;11;1;165;0;0
IRIGO1BARR;Ligne_IRIGOC;3;11;1;165;0;0
IRIGO2PATT;Ligne_IRIGOC;4;11;1;165;0;0
IRIGO1BBCA;Ligne_IRIGOC;1;10;1;165;0;0
IRIGOzone_STRASBOURG;Ligne_IRIGOC;15;11;1;165;0;0
IRIGO2QUAI;Ligne_IRIGOC;7;11;1;165;0;0
IRIGO1BEAU;Ligne_IRIGOC;2;11;1;165;0;0
IRIGOzone_PLACE_LA_FAYETTE;Ligne_IRIGOC;14;11;1;165;0;0
IRIGOzone_FOCH_MAISON_BLEUE;Ligne_IRIGOC;11;11;1;165;0;0
