idExterne;nom;type;ordre;couleur;vCreation;vMaj;vSuppression
DIDOK_Suisse_U;Ligne Unique;Trains;9999999;#000000;142;164;0
DIDOK_Neuchatel_215;Ligne 215 de Neuchâtel;Tramway;0;#77d4c3;0;0;164
DIDOK_Lausanne_M1;Métro M1 de Lausanne;Metro;4100010;#e2007a;142;164;0
DIDOK_Lausanne_M2;Métro M2 de Lausanne;Metro;4100020;#e2007a;142;164;0
DIDOK_Geneve_Tram12;Tramway 12 de Genève;Tramway;4120120;#F9A51B;142;164;0
DIDOK_Geneve_Tram14;Tramway 14 de Genève;Tramway;4120140;#403A97;142;164;0
DIDOK_Geneve_Tram15;Tramway 15 de Genève;Tramway;4120150;#8A5331;142;164;0
DIDOK_Geneve_Tram18;Tramway 18 de Genève;Tramway;4120180;#A153A1;142;164;0
DIDOK_Bern_Tram3;Tramway 3 de Berne;Tramway;4300030;#99B3BE;142;164;0
DIDOK_Bern_Tram6;Tramway 6 de Berne;Tramway;4300060;#0089CF;142;164;0
DIDOK_Bern_Tram7;Tramway 7 de Berne;Tramway;4300070;#EE1D23;142;164;0
DIDOK_Bern_Tram8;Tramway 8 de Berne;Tramway;4300080;#F171AB;142;164;0
DIDOK_Bern_Tram9;Tramway 9 de Berne;Tramway;4300090;#FEC210;142;164;0
DIDOK_Bale_Tram1;Tramway 1 de Bâle;Tramway;4400010;#8B4513;142;164;0
DIDOK_Bale_Tram2;Tramway 2 de Bâle;Tramway;4400020;#CD853F;142;164;0
DIDOK_Bale_Tram3;Tramway 3 de Bâle;Tramway;4400030;#0000ff;142;164;0
DIDOK_Bale_Tram6;Tramway 6 de Bâle;Tramway;4400060;#1E90FF;142;164;0
DIDOK_Bale_Tram8;Tramway 8 de Bâle;Tramway;4400080;#FF69B4;142;164;0
DIDOK_Bale_Tram10;Tramway 10 de Bâle;Tramway;4400100;#FFFF00;142;164;0
DIDOK_Bale_Tram11;Tramway 11 de Bâle;Tramway;4400110;#FF0000;142;164;0
DIDOK_Bale_TramE11;Tramway E11 de Bâle;Tramway;4400111;#FF0000;142;164;0
DIDOK_Bale_Tram14;Tramway 14 de Bâle;Tramway;4400140;#FFA500;142;164;0
DIDOK_Bale_Tram15;Tramway 15 de Bâle;Tramway;4400150;#008000;142;164;0
DIDOK_Bale_Tram16;Tramway 16 de Bâle;Tramway;4400160;#7FFF00;142;164;0
DIDOK_Bale_Tram17;Tramway 17 de Bâle;Tramway;4400170;#0000FF;142;164;0
DIDOK_Bale_Tram21;Tramway 21 de Bâle;Tramway;4400210;#ADD8E6;142;164;0
DIDOK_Zurich_Tram2;Tramway 2 de Zurich;Tramway;4800020;#000000;142;164;0
DIDOK_Zurich_Tram3;Tramway 3 de Zurich;Tramway;4800030;#000000;142;164;0
DIDOK_Zurich_Tram4;Tramway 4 de Zurich;Tramway;4800040;#000000;142;164;0
DIDOK_Zurich_Tram5;Tramway 5 de Zurich;Tramway;4800050;#000000;142;164;0
DIDOK_Zurich_Tram6;Tramway 6 de Zurich;Tramway;4800060;#000000;142;164;0
DIDOK_Zurich_Tram7;Tramway 7 de Zurich;Tramway;4800070;#000000;142;164;0
DIDOK_Zurich_Tram8;Tramway 8 de Zurich;Tramway;4800080;#000000;142;164;0
DIDOK_Zurich_Tram9;Tramway 9 de Zurich;Tramway;4800090;#000000;142;164;0
DIDOK_Zurich_Tram10;Tramway 10 de Zurich;Tramway;4800100;#000000;142;164;0
DIDOK_Zurich_Tram11;Tramway 11 de Zurich;Tramway;4800110;#000000;142;164;0
DIDOK_Zurich_Tram12;Tramway 12 de Zurich;Tramway;4800120;#000000;142;164;0
DIDOK_Zurich_Tram13;Tramway 13 de Zurich;Tramway;4800130;#000000;142;164;0
DIDOK_Zurich_Tram14;Tramway 14 de Zurich;Tramway;4800140;#000000;142;164;0
DIDOK_Zurich_Tram15;Tramway 15 de Zurich;Tramway;4800150;#000000;142;164;0
DIDOK_Zurich_Tram17;Tramway 17 de Zurich;Tramway;4800170;#000000;142;164;0
DIDOK_Neuchatel_R15;Ligne R15 (Région Neuchâtel);Trains;3200150;#77D4C3;164;0;0
DIDOK_Suisse_IC1;Ligne IC1;Trains;1000010;#CC301E;164;0;0
DIDOK_Suisse_IC2;Ligne IC2;Trains;1000020;#CC301E;164;0;0
DIDOK_Suisse_IC3;Ligne IC3;Trains;1000030;#CC301E;164;0;0
DIDOK_Suisse_IC5;Ligne IC5;Trains;1000050;#CC301E;164;0;0
DIDOK_Suisse_IC6;Ligne IC6;Trains;1000060;#CC301E;164;0;0
DIDOK_Suisse_IC21;Ligne IC21;Trains;1000210;#CC301E;164;0;0
DIDOK_Suisse_IC51;Ligne IC51;Trains;1000510;#CC301E;164;0;0
DIDOK_Suisse_IC61;Ligne IC61;Trains;1000610;#CC301E;164;0;0
DIDOK_Suisse_IC81;Ligne IC81;Trains;1000810;#CC301E;164;0;0
DIDOK_Suisse_IR13;Ligne IR13;Trains;1010130;#CC301E;164;0;0
DIDOK_Suisse_IR15;Ligne IR15;Trains;1010150;#CC301E;164;0;0
DIDOK_Suisse_IR16;Ligne IR16;Trains;1010160;#CC301E;164;0;0
DIDOK_Suisse_IR17;Ligne IR17;Trains;1010170;#B1DE47;164;0;0
DIDOK_Suisse_IR26;Ligne IR26;Trains;1010260;#7A573F;164;0;0
DIDOK_Suisse_IR27;Ligne IR27;Trains;1010270;#CC301E;164;0;0
DIDOK_Suisse_IR35;Ligne IR35;Trains;1010350;#7A573F;164;0;0
DIDOK_Suisse_IR36;Ligne IR36;Trains;1010360;#CC301E;164;0;0
DIDOK_Suisse_IR37;Ligne IR37;Trains;1010370;#CC301E;164;0;0
DIDOK_Suisse_IR46;Ligne IR46;Trains;1010460;#7A573F;164;0;0
DIDOK_Suisse_IR65;Ligne IR65;Trains;1010650;#B1DE47;164;0;0
DIDOK_Suisse_IR66;Ligne IR66;Trains;1010660;#B1DE47;164;0;0
DIDOK_Suisse_IR70;Ligne IR70;Trains;1010700;#CC301E;164;0;0
DIDOK_Suisse_IR75;Ligne IR75;Trains;1010750;#CC301E;164;0;0
DIDOK_Suisse_IR90;Ligne IR90;Trains;1010900;#CC301E;164;0;0
