id;idExterne;nom;exploitant;latitude;longitude;couleur;couleurEvolution;vCreation;vMaj;vSuppression
Tfl1000002;Tfl1000002;Acton Town;Transport for London;51.502749773000570000;-.280251203536110600;0;2;133;0;0
Tfl1000003;Tfl1000003;Aldgate;Transport for London;51.514271823083390000;-.075614184477749600;1;0;133;0;0
Tfl1000004;Tfl1000004;Aldgate East;Transport for London;51.515233413796480000;-.072287119975365420;2;6;133;0;0
Tfl1000005;Tfl1000005;Alperton;Transport for London;51.540694766293470000;-.299486538678611470;3;6;133;0;0
Tfl1000006;Tfl1000006;Amersham;Transport for London;51.674149710629730000;-.607478839102469000;4;7;133;0;0
Tfl1000007;Tfl1000007;Angel;Transport for London;51.532498868904300000;-.105789913665305300;5;2;133;0;0
Tfl1000008;Tfl1000008;Archway;Transport for London;51.565426754533750000;-.135113518210335370;6;5;133;0;0
Tfl1000009;Tfl1000009;Arnos Grove;Transport for London;51.616340261056756000;-.133516309581780070;7;2;133;0;0
Tfl1000010;Tfl1000010;Arsenal;Transport for London;51.558498768776680000;-.105761988175557870;0;7;133;0;0
Tfl1000011;Tfl1000011;Baker Street;Transport for London;51.523061248142790000;-.156900356057780880;1;5;133;0;0
Tfl1000012;Tfl1000012;Balham;Transport for London;51.443328979635250000;-.153207552666472820;2;0;133;0;0
Tfl1000013;Tfl1000013;Bank;Transport for London;51.513302371519344000;-.088915809045260000;3;7;133;0;0
Tfl1000014;Tfl1000014;Barbican;Transport for London;51.520145725324900000;-.097711123216248310;4;7;133;0;0
Tfl1000015;Tfl1000015;Barking;Transport for London;51.539451208515715000;.080863182849410430;5;4;133;0;0
Tfl1000016;Tfl1000016;Barkingside;Transport for London;51.585785960390545000;.088511013821779280;6;1;133;0;0
Tfl1000017;Tfl1000017;Barons Court;Transport for London;51.490159942708935000;-.213606857361082370;7;3;133;0;0
Tfl1000018;Tfl1000018;Bayswater;Transport for London;51.512233058741060000;-.188038262221618460;0;1;133;0;0
Tfl1000019;Tfl1000019;Becontree;Transport for London;51.540288535204700000;.127400321155280580;1;2;133;0;0
Tfl1000020;Tfl1000020;Belsize Park;Transport for London;51.550426627718240000;-.164232306333818050;2;6;133;0;0
Tfl1000021;Tfl1000021;Bermondsey;Transport for London;51.497949119581570000;-.063651350918079250;3;5;133;0;0
Tfl1000022;Tfl1000022;Bethnal Green;Transport for London;51.527195236069566000;-.055431117145884300;4;1;133;0;0
Tfl1000023;Tfl1000023;Blackfriars;Transport for London;51.511490522247490000;-.103606731219862620;5;0;133;0;0
Tfl1000024;Tfl1000024;Blackhorse Road;Transport for London;51.586951195438930000;-.040996340920370744;6;5;133;0;0
Tfl1000025;Tfl1000025;Bond Street;Transport for London;51.513804535388070000;-.149332354586202300;7;2;133;0;0
Tfl1000026;Tfl1000026;Borough;Transport for London;51.501193998928510000;-.093702664758373440;0;7;133;0;0
Tfl1000027;Tfl1000027;Boston Manor;Transport for London;51.495696382188164000;-.324763573796374050;1;5;133;0;0
Tfl1000028;Tfl1000028;Bounds Green;Transport for London;51.607090556952755000;-.124218963208536690;2;6;133;0;0
Tfl1000029;Tfl1000029;Bow Road;Transport for London;51.526800254826064000;-.024823746874528683;3;6;133;0;0
Tfl1000030;Tfl1000030;Brent Cross;Transport for London;51.576800471443870000;-.213455833755365300;4;7;133;0;0
Tfl1000031;Tfl1000031;Brixton;Transport for London;51.462581333631725000;-.114635581578615600;5;4;133;0;0
Tfl1000033;Tfl1000033;Buckhurst Hill;Transport for London;51.626517330409435000;.046743856240495990;6;4;133;0;0
Tfl1000034;Tfl1000034;Burnt Oak;Transport for London;51.602681099702550000;-.264198758145630100;7;0;133;0;0
Tfl1000035;Tfl1000035;Caledonian Road;Transport for London;51.548421318403776000;-.118312333133271940;0;7;133;0;0
Tfl1000036;Tfl1000036;Camden Town;Transport for London;51.539403522631090000;-.142726148730286300;1;4;133;0;0
Tfl1000037;Tfl1000037;Canada Water;Transport for London;51.497888681995114000;-.049705986794378270;2;6;133;0;0
Tfl1000038;Tfl1000038;Canary Wharf;Transport for London;51.503550485647594000;-.019431816253263262;3;7;133;0;0
Tfl1000039;Tfl1000039;Canning Town;Transport for London;51.513837129289570000;.008171036532588041;4;0;133;0;0
Tfl1000040;Tfl1000040;Cannon Street;Transport for London;51.511433722337300000;-.090694850680980680;5;2;133;0;0
Tfl1000041;Tfl1000041;Canons Park;Transport for London;51.607759515215320000;-.294653740878426550;6;1;133;0;0
Tfl1000042;Tfl1000042;Chalfont & Latimer;Transport for London;51.668025473926090000;-.560534956448776200;7;1;133;0;0
Tfl1000043;Tfl1000043;Chalk Farm;Transport for London;51.544083102422630000;-.153728009451251480;0;2;133;0;0
Tfl1000044;Tfl1000044;Chancery Lane;Transport for London;51.518123230614440000;-.111677427383970640;1;6;133;0;0
Tfl1000045;Tfl1000045;Charing Cross;Transport for London;51.508593207603190000;-.124754686624366030;2;7;133;0;0
Tfl1000046;Tfl1000046;Chesham;Transport for London;51.705030454829610000;-.611219246324909900;3;2;133;0;0
Tfl1000047;Tfl1000047;Chigwell;Transport for London;51.617871925405100000;.074526611263722940;4;7;133;0;0
Tfl1000048;Tfl1000048;Chiswick Park;Transport for London;51.494300591745144000;-.267746873913726140;5;2;133;0;0
Tfl1000049;Tfl1000049;Chorleywood;Transport for London;51.654217860774500000;-.518365989763054100;6;1;133;0;0
Tfl1000050;Tfl1000050;Clapham Common;Transport for London;51.461727933283946000;-.138311459464252400;7;5;133;0;0
Tfl1000051;Tfl1000051;Clapham North;Transport for London;51.464843732027760000;-.129531053727598040;0;5;133;0;0
Tfl1000052;Tfl1000052;Clapham South;Transport for London;51.452599834714476000;-.147982098639174410;1;6;133;0;0
Tfl1000053;Tfl1000053;Cockfosters;Transport for London;51.651687534574954000;-.149614715155877680;2;5;133;0;0
Tfl1000054;Tfl1000054;Colindale;Transport for London;51.595286518799250000;-.250142587760251700;3;4;133;0;0
Tfl1000055;Tfl1000055;Colliers Wood;Transport for London;51.418071885122640000;-.177700936628786360;4;1;133;0;0
Tfl1000056;Tfl1000056;Covent Garden;Transport for London;51.512909586141590000;-.124159260603112690;5;2;133;0;0
Tfl1000057;Tfl1000057;Croxley;Transport for London;51.647046338116360000;-.441710992609101700;6;5;133;0;0
Tfl1000058;Tfl1000058;Dagenham East;Transport for London;51.544116734223610000;.165874869677022780;7;4;133;0;0
Tfl1000059;Tfl1000059;Dagenham Heathway;Transport for London;51.541627413616190000;.147684194913217710;0;1;133;0;0
Tfl1000060;Tfl1000060;Debden;Transport for London;51.645434322048956000;.083837809879712370;1;7;133;0;0
Tfl1000061;Tfl1000061;Dollis Hill;Transport for London;51.551903559056100000;-.238797558508156870;2;5;133;0;0
Tfl1000062;Tfl1000062;Ealing Broadway;Transport for London;51.514913033739160000;-.301500096369187100;3;2;133;0;0
Tfl1000063;Tfl1000063;Ealing Common;Transport for London;51.510124738537850000;-.288260381056999100;4;1;133;0;0
Tfl1000064;Tfl1000064;Earl's Court;Transport for London;51.491803907898900000;-.193545854058733800;5;1;133;0;0
Tfl1000065;Tfl1000065;East Acton;Transport for London;51.516582199054170000;-.247513203550207700;6;0;133;0;0
Tfl1000067;Tfl1000067;East Finchley;Transport for London;51.587271719132026000;-.164738305623223720;7;4;133;0;0
Tfl1000068;Tfl1000068;East Ham;Transport for London;51.538926036547580000;.051475548835470040;0;3;133;0;0
Tfl1000069;Tfl1000069;East Putney;Transport for London;51.458804746350000000;-.211003174222271470;1;4;133;0;0
Tfl1000066;Tfl1000066;Eastcote;Transport for London;51.576493044501650000;-.396844627186990200;2;5;133;0;0
Tfl1000070;Tfl1000070;Edgware;Transport for London;51.613623079849460000;-.274976006045290200;3;2;133;0;0
Tfl1000073;Tfl1000073;Elephant & Castle;Transport for London;51.495777047270740000;-.100729603883341970;4;5;133;0;0
Tfl1000074;Tfl1000074;Elm Park;Transport for London;51.549801253986864000;.199180459239238080;5;0;133;0;0
Tfl1000075;Tfl1000075;Embankment;Transport for London;51.507241796748396000;-.122360215814178660;6;0;133;0;0
Tfl1000076;Tfl1000076;Epping;Transport for London;51.693624607565480000;.113866915583570900;7;5;133;0;0
Tfl1000077;Tfl1000077;Euston;Transport for London;51.528596260899460000;-.133289718799315530;0;6;133;0;0
Tfl1000078;Tfl1000078;Euston Square;Transport for London;51.525561006016105000;-.135836140694320340;1;6;133;0;0
Tfl1000079;Tfl1000079;Fairlop;Transport for London;51.595680931861040000;.090929226191151620;2;1;133;0;0
Tfl1000080;Tfl1000080;Farringdon;Transport for London;51.520444754930790000;-.105065254236880330;3;5;133;0;0
Tfl1000081;Tfl1000081;Finchley Central;Transport for London;51.600976420785250000;-.192447107072110800;4;7;133;0;0
Tfl1000082;Tfl1000082;Finchley Road;Transport for London;51.547064834336794000;-.180494175915812260;5;2;133;0;0
Tfl1000083;Tfl1000083;Finsbury Park;Transport for London;51.564401648484590000;-.106512100282158470;6;3;133;0;0
Tfl1000084;Tfl1000084;Fulham Broadway;Transport for London;51.480529784298170000;-.194956844603215860;7;6;133;0;0
Tfl1000085;Tfl1000085;Gants Hill;Transport for London;51.576487548031560000;.066115533982912160;0;2;133;0;0
Tfl1000086;Tfl1000086;Gloucester Road;Transport for London;51.494239783916480000;-.182989526482896930;1;0;133;0;0
Tfl1000087;Tfl1000087;Golders Green;Transport for London;51.572221393232800000;-.193993261252232000;2;7;133;0;0
Tfl1000088;Tfl1000088;Goldhawk Road;Transport for London;51.501952197301270000;-.226748329203583370;3;0;133;0;0
Tfl1000089;Tfl1000089;Goodge Street;Transport for London;51.520424996045500000;-.134662152092394320;4;1;133;0;0
Tfl1000090;Tfl1000090;Grange Hill;Transport for London;51.613349857801460000;.092146407242701880;5;0;133;0;0
Tfl1000091;Tfl1000091;Great Portland Street;Transport for London;51.523720314628890000;-.143956086447368930;6;3;133;0;0
Tfl1000093;Tfl1000093;Green Park;Transport for London;51.506850108502306000;-.142927422207874380;7;1;133;0;0
Tfl1000092;Tfl1000092;Greenford;Transport for London;51.542302026759124000;-.346444146567460000;0;1;133;0;0
Tfl1000095;Tfl1000095;Hainault;Transport for London;51.603727217978240000;.093119014044497110;1;4;133;0;0
Tfl1000098;Tfl1000098;Hampstead;Transport for London;51.556688476264430000;-.178219762924764630;2;3;133;0;0
Tfl1000099;Tfl1000099;Hanger Lane;Transport for London;51.530006403588040000;-.293007522620696200;3;6;133;0;0
Tfl1000103;Tfl1000103;Hatton Cross;Transport for London;51.466614173462760000;-.423409349454662700;4;0;133;0;0
Tfl1000104;Tfl1000104;Heathrow Terminal 4;Transport for London;51.458553104092005000;-.446058766977937300;5;0;133;0;0
Tfl1000106;Tfl1000106;Hendon Central;Transport for London;51.583293830072000000;-.226496207803293200;6;4;133;0;0
Tfl1000107;Tfl1000107;High Barnet;Transport for London;51.650601170588565000;-.194751021947520400;7;2;133;0;0
Tfl1000110;Tfl1000110;High Street Kensington;Transport for London;51.500673420263205000;-.192503135590810750;0;6;133;0;0
Tfl1000108;Tfl1000108;Highbury & Islington;Transport for London;51.546229491737870000;-.103964238784979300;1;5;133;0;0
Tfl1000109;Tfl1000109;Highgate;Transport for London;51.577597829618790000;-.146638422561128380;2;5;133;0;0
Tfl1000111;Tfl1000111;Hillingdon;Transport for London;51.553716844570935000;-.449926295661858930;3;5;133;0;0
Tfl1000112;Tfl1000112;Holborn;Transport for London;51.517438783075970000;-.120008849244825100;4;3;133;0;0
Tfl1000113;Tfl1000113;Holland Park;Transport for London;51.507334043150680000;-.205728672749766300;5;1;133;0;0
Tfl1000114;Tfl1000114;Holloway Road;Transport for London;51.552750537878600000;-.112925632539152260;6;3;133;0;0
Tfl1000115;Tfl1000115;Hornchurch;Transport for London;51.554005256006330000;.219018986707928050;7;1;133;0;0
Tfl1000116;Tfl1000116;Hounslow Central;Transport for London;51.471083300365436000;-.366922420319065300;0;3;133;0;0
Tfl1000117;Tfl1000117;Hounslow East;Transport for London;51.473170615833226000;-.356695318244920060;1;6;133;0;0
Tfl1000118;Tfl1000118;Hounslow West;Transport for London;51.473034798965720000;-.385731868407531600;2;7;133;0;0
Tfl1000119;Tfl1000119;Hyde Park Corner;Transport for London;51.502760411212570000;-.152748811981766980;3;6;133;0;0
Tfl1000120;Tfl1000120;Ickenham;Transport for London;51.561984742559240000;-.442026555689012170;4;7;133;0;0
Tfl1000121;Tfl1000121;Kennington;Transport for London;51.488119530611540000;-.105485152526283220;5;7;133;0;0
Tfl1000123;Tfl1000123;Kentish Town;Transport for London;51.550303762237870000;-.140464192953272140;6;2;133;0;0
Tfl1000126;Tfl1000126;Kilburn;Transport for London;51.546879502456840000;-.204633341254655960;7;6;133;0;0
Tfl1000127;Tfl1000127;Kilburn Park;Transport for London;51.535069084357000000;-.193965947368527200;0;4;133;0;0
Tfl1000128;Tfl1000128;Kingsbury;Transport for London;51.584756866190325000;-.278799057434066500;1;2;133;0;0
Tfl1000130;Tfl1000130;Knightsbridge;Transport for London;51.501551433201136000;-.160507091328832150;2;7;133;0;0
Tfl1000131;Tfl1000131;Ladbroke Grove;Transport for London;51.517188449881736000;-.210861917848587150;3;1;133;0;0
Tfl1000132;Tfl1000132;Lambeth North;Transport for London;51.499058148698570000;-.111760270277701970;4;1;133;0;0
Tfl1000133;Tfl1000133;Lancaster Gate;Transport for London;51.511821534588610000;-.175428659257816700;5;3;133;0;0
Tfl1000134;Tfl1000134;Latimer Road;Transport for London;51.513543593897175000;-.217779301792146050;6;2;133;0;0
Tfl1000135;Tfl1000135;Leicester Square;Transport for London;51.511221028367200000;-.128235532172760460;7;2;133;0;0
Tfl1000136;Tfl1000136;Leyton;Transport for London;51.556432927054910000;-.005619879781309080;0;6;133;0;0
Tfl1000137;Tfl1000137;Leytonstone;Transport for London;51.568185263674590000;.008215047486340644;1;4;133;0;0
Tfl1000138;Tfl1000138;Liverpool Street;Transport for London;51.517351230751740000;-.082965709456943840;2;5;133;0;0
Tfl1000139;Tfl1000139;London Bridge;Transport for London;51.505499353249796000;-.086922404191941930;3;0;133;0;0
Tfl1000140;Tfl1000140;Loughton;Transport for London;51.641512759080584000;.055311997154570370;4;7;133;0;0
Tfl1000141;Tfl1000141;Maida Vale;Transport for London;51.529760016810314000;-.185625902229911570;5;7;133;0;0
Tfl1000142;Tfl1000142;Manor House;Transport for London;51.570756005284366000;-.095712466704881360;6;1;133;0;0
Tfl1000143;Tfl1000143;Mansion House;Transport for London;51.512021200956030000;-.094187135312932570;7;4;133;0;0
Tfl1000144;Tfl1000144;Marble Arch;Transport for London;51.513543293181170000;-.158438046626587060;0;3;133;0;0
Tfl1000145;Tfl1000145;Marylebone;Transport for London;51.522223341970424000;-.163104487142123720;1;3;133;0;0
Tfl1000146;Tfl1000146;Mile End;Transport for London;51.525091871834480000;-.033404170381106150;2;5;133;0;0
Tfl1000147;Tfl1000147;Mill Hill East;Transport for London;51.608258895239280000;-.209894419946043500;3;1;133;0;0
Tfl1000148;Tfl1000148;Monument;Transport for London;51.513347819184280000;-.088942732741562510;4;7;133;0;0
Tfl1000150;Tfl1000150;Moor Park;Transport for London;51.629731090477620000;-.432666848603920740;5;6;133;0;0
Tfl1000149;Tfl1000149;Moorgate;Transport for London;51.518367249884620000;-.089006315013091150;6;1;133;0;0
Tfl1000151;Tfl1000151;Morden;Transport for London;51.402336940766870000;-.194790700834515200;7;5;133;0;0
Tfl1000152;Tfl1000152;Mornington Crescent;Transport for London;51.534206610602570000;-.138842529989899570;0;3;133;0;0
Tfl1000153;Tfl1000153;Neasden;Transport for London;51.553965717461770000;-.249782872822431580;1;0;133;0;0
Tfl1000154;Tfl1000154;Newbury Park;Transport for London;51.575572493610600000;.090337313681270550;2;6;133;0;0
Tfl1000157;Tfl1000157;North Acton;Transport for London;51.523365556364130000;-.259737385737795140;3;6;133;0;0
Tfl1000158;Tfl1000158;North Ealing;Transport for London;51.517555160358675000;-.289004979762560500;4;0;133;0;0
Tfl1000160;Tfl1000160;North Greenwich;Transport for London;51.500181823992640000;.003607416938325964;5;4;133;0;0
Tfl1000161;Tfl1000161;North Harrow;Transport for London;51.584791846729885000;-.362223573258194200;6;2;133;0;0
Tfl1000159;Tfl1000159;Northfields;Transport for London;51.499276482193580000;-.314156832664969850;7;2;133;0;0
Tfl1000162;Tfl1000162;Northolt;Transport for London;51.548150439002740000;-.368459834282661160;0;3;133;0;0
Tfl1000164;Tfl1000164;Northwick Park;Transport for London;51.578592841487520000;-.318206356876206400;1;7;133;0;0
Tfl1000165;Tfl1000165;Northwood;Transport for London;51.611159228903716000;-.423860793851574430;2;3;133;0;0
Tfl1000166;Tfl1000166;Northwood Hills;Transport for London;51.600494576500000000;-.409298630674160700;3;2;133;0;0
Tfl1000167;Tfl1000167;Notting Hill Gate;Transport for London;51.509063533643740000;-.196537685407762500;4;5;133;0;0
Tfl1000168;Tfl1000168;Oakwood;Transport for London;51.647583649194110000;-.131841721300937210;5;4;133;0;0
Tfl1000169;Tfl1000169;Old Street;Transport for London;51.525601323369810000;-.087549731436462540;6;0;133;0;0
Tfl1000171;Tfl1000171;Osterley;Transport for London;51.480928804588714000;-.351994404645611300;7;2;133;0;0
Tfl1000172;Tfl1000172;Oval;Transport for London;51.482105452338025000;-.112893408798067650;0;4;133;0;0
Tfl1000173;Tfl1000173;Oxford Circus;Transport for London;51.515123799037090000;-.141768983668966370;1;6;133;0;0
Tfl1000174;Tfl1000174;Paddington;Transport for London;51.515310415793490000;-.175390006010324200;2;4;133;0;0
Tfl1000176;Tfl1000176;Park Royal;Transport for London;51.526901379245410000;-.284228015904849400;3;5;133;0;0
Tfl1000177;Tfl1000177;Parsons Green;Transport for London;51.475095330474790000;-.201234656583119650;4;1;133;0;0
Tfl1000178;Tfl1000178;Perivale;Transport for London;51.536594089926690000;-.323852038492346400;5;0;133;0;0
Tfl1000179;Tfl1000179;Piccadilly Circus;Transport for London;51.510026995270750000;-.134006365558421630;6;7;133;0;0
Tfl1000180;Tfl1000180;Pimlico;Transport for London;51.489193760110520000;-.133748665287791170;7;6;133;0;0
Tfl1000181;Tfl1000181;Pinner;Transport for London;51.592857630090860000;-.380919804150348800;0;6;133;0;0
Tfl1000182;Tfl1000182;Plaistow;Transport for London;51.531218392483616000;.017804698696490015;1;4;133;0;0
Tfl1000183;Tfl1000183;Preston Road;Transport for London;51.572037991815020000;-.295256300158967800;2;6;133;0;0
Tfl1000184;Tfl1000184;Putney Bridge;Transport for London;51.467902222271880000;-.208976678487921420;3;0;133;0;0
Tfl1000185;Tfl1000185;Queensbury;Transport for London;51.594347148072560000;-.285785681643207800;4;6;133;0;0
Tfl1000187;Tfl1000187;Queensway;Transport for London;51.510380051624610000;-.187434461364574480;5;6;133;0;0
Tfl1000188;Tfl1000188;Ravenscourt Park;Transport for London;51.494136531497860000;-.236258353945599400;6;1;133;0;0
Tfl1000189;Tfl1000189;Rayners Lane;Transport for London;51.574976703881340000;-.371005563517764870;7;3;133;0;0
Tfl1000190;Tfl1000190;Redbridge;Transport for London;51.576301792400690000;.045423116107576156;0;1;133;0;0
Tfl1000191;Tfl1000191;Regent's Park;Transport for London;51.523505503468370000;-.146862634752862040;1;6;133;0;0
Tfl1000193;Tfl1000193;Rickmansworth;Transport for London;51.640272706988570000;-.473712107018385900;2;7;133;0;0
Tfl1000194;Tfl1000194;Roding Valley;Transport for London;51.617115241205420000;.043864415463376070;3;0;133;0;0
Tfl1000195;Tfl1000195;Rotherhithe;Transport for London;51.501005694266450000;-.052180998321318894;4;7;133;0;0
Tfl1000196;Tfl1000196;Royal Oak;Transport for London;51.519017120333290000;-.188230043028310500;5;6;133;0;0
Tfl1000197;Tfl1000197;Ruislip;Transport for London;51.571449113222800000;-.421455074014979600;6;5;133;0;0
Tfl1000198;Tfl1000198;Ruislip Gardens;Transport for London;51.560588503076744000;-.411039284928411100;7;6;133;0;0
Tfl1000199;Tfl1000199;Ruislip Manor;Transport for London;51.573187677867050000;-.412345792093259500;0;5;133;0;0
Tfl1000200;Tfl1000200;Russell Square;Transport for London;51.522912845083240000;-.124310055647967780;1;7;133;0;0
Tfl1000201;Tfl1000201;Seven Sisters;Transport for London;51.583354184664740000;-.072491881494998600;2;7;133;0;0
Tfl1000202;Tfl1000202;Shadwell;Transport for London;51.511228978184640000;-.056904475684454184;3;6;133;0;0
Tfl1000206;Tfl1000206;Sloane Square;Transport for London;51.492287824097220000;-.156486231690913330;4;1;133;0;0
Tfl1000207;Tfl1000207;Snaresbrook;Transport for London;51.580827019760860000;.021490462438689930;5;0;133;0;0
Tfl1000208;Tfl1000208;South Ealing;Transport for London;51.501367936344180000;-.307018839246706250;6;2;133;0;0
Tfl1000211;Tfl1000211;South Harrow;Transport for London;51.564677570548550000;-.352211570870426400;7;3;133;0;0
Tfl1000212;Tfl1000212;South Kensington;Transport for London;51.493999872763690000;-.173922310883827400;0;3;133;0;0
Tfl1000214;Tfl1000214;South Ruislip;Transport for London;51.556516957971670000;-.398658757175952700;1;6;133;0;0
Tfl1000216;Tfl1000216;South Wimbledon;Transport for London;51.415280365884330000;-.191979094023124400;2;1;133;0;0
Tfl1000217;Tfl1000217;South Woodford;Transport for London;51.591725648273090000;.027317133742799650;3;1;133;0;0
Tfl1000209;Tfl1000209;Southfields;Transport for London;51.444931327018910000;-.206537544055385570;4;7;133;0;0
Tfl1000210;Tfl1000210;Southgate;Transport for London;51.632319710071860000;-.127758393371046300;5;6;133;0;0
Tfl1000215;Tfl1000215;Southwark;Transport for London;51.503843006939000000;-.105091836006184110;6;7;133;0;0
Tfl1000218;Tfl1000218;Stamford Brook;Transport for London;51.494796231456820000;-.245453795237972340;7;5;133;0;0
Tfl1000219;Tfl1000219;Stanmore;Transport for London;51.619618336838600000;-.303108171358637650;0;3;133;0;0
Tfl1000220;Tfl1000220;Stepney Green;Transport for London;51.521910629627830000;-.046458666350820540;1;6;133;0;0
Tfl1000223;Tfl1000223;Stockwell;Transport for London;51.472166538615750000;-.122909311662102960;2;3;133;0;0
Tfl1000226;Tfl1000226;Stratford;Transport for London;51.541309265966866000;-.003195329570308264;3;4;133;0;0
Tfl1000227;Tfl1000227;Sudbury Hill;Transport for London;51.556996189234300000;-.336215632044355560;4;0;133;0;0
Tfl1000228;Tfl1000228;Sudbury Town;Transport for London;51.550782456897100000;-.315482697033724100;5;1;133;0;0
Tfl1000229;Tfl1000229;Surrey Quays;Transport for London;51.493193457463170000;-.047514931071433080;6;2;133;0;0
Tfl1000230;Tfl1000230;Swiss Cottage;Transport for London;51.543315320154384000;-.174759253028733900;7;4;133;0;0
Tfl1000231;Tfl1000231;Temple;Transport for London;51.510969984944460000;-.113703089738369980;0;6;133;0;0
Tfl1000232;Tfl1000232;Theydon Bois;Transport for London;51.671711317303384000;.103125376663494610;1;5;133;0;0
Tfl1000233;Tfl1000233;Tooting Bec;Transport for London;51.435759628808380000;-.159700539935752140;2;5;133;0;0
Tfl1000234;Tfl1000234;Tooting Broadway;Transport for London;51.427435389662655000;-.167976763305219070;3;6;133;0;0
Tfl1000235;Tfl1000235;Tottenham Court Road;Transport for London;51.516209552513860000;-.130870518140944360;4;0;133;0;0
Tfl1000236;Tfl1000236;Tottenham Hale;Transport for London;51.588045301521500000;-.060281116367504950;5;3;133;0;0
Tfl1000237;Tfl1000237;Totteridge & Whetstone;Transport for London;51.630207704762380000;-.179261212923982800;6;4;133;0;0
Tfl1000238;Tfl1000238;Tower Hill;Transport for London;51.510065953884120000;-.076353695174605170;7;1;133;0;0
Tfl1000239;Tfl1000239;Tufnell Park;Transport for London;51.556666819988955000;-.137924881080636940;0;4;133;0;0
Tfl1000240;Tfl1000240;Turnham Green;Transport for London;51.495111725298166000;-.254532982987942970;1;6;133;0;0
Tfl1000241;Tfl1000241;Turnpike Lane;Transport for London;51.590296770154760000;-.102792275055815370;2;7;133;0;0
Tfl1000242;Tfl1000242;Upminster;Transport for London;51.558889076169990000;.251087116066800950;3;4;133;0;0
Tfl1000243;Tfl1000243;Upminster Bridge;Transport for London;51.558750507947340000;.235771220399919740;4;7;133;0;0
Tfl1000244;Tfl1000244;Upney;Transport for London;51.538335312488270000;.101565625591421570;5;2;133;0;0
Tfl1000245;Tfl1000245;Upton Park;Transport for London;51.535233303921100000;.035273180129164805;6;0;133;0;0
Tfl1000246;Tfl1000246;Uxbridge;Transport for London;51.546496370460570000;-.478139472136282440;7;2;133;0;0
Tfl1000247;Tfl1000247;Vauxhall;Transport for London;51.485733376040270000;-.123748951030590600;0;3;133;0;0
Tfl1000248;Tfl1000248;Victoria;Transport for London;51.496342174731000000;-.143844854340144740;1;4;133;0;0
Tfl1000249;Tfl1000249;Walthamstow Central;Transport for London;51.582954705002570000;-.019918639025007567;2;5;133;0;0
Tfl1000250;Tfl1000250;Wanstead;Transport for London;51.575521336921070000;.028745919335254173;3;6;133;0;0
Tfl1000251;Tfl1000251;Wapping;Transport for London;51.504268283481814000;-.055846250896647850;4;3;133;0;0
Tfl1000252;Tfl1000252;Warren Street;Transport for London;51.524511517547950000;-.138272313383213400;5;2;133;0;0
Tfl1000253;Tfl1000253;Warwick Avenue;Transport for London;51.523272522746110000;-.183678270688914820;6;4;133;0;0
Tfl1000254;Tfl1000254;Waterloo;Transport for London;51.503502207173680000;-.114069435807659030;7;2;133;0;0
Tfl1000255;Tfl1000255;Watford;Transport for London;51.657420971906490000;-.417280631945957540;0;7;133;0;0
Tfl1000257;Tfl1000257;Wembley Park;Transport for London;51.563260483955110000;-.279251008726512000;1;5;133;0;0
Tfl1000258;Tfl1000258;West Acton;Transport for London;51.517860586187880000;-.280993289991878060;2;4;133;0;0
Tfl1000260;Tfl1000260;West Brompton;Transport for London;51.487256950006746000;-.195540834373956750;3;0;133;0;0
Tfl1000261;Tfl1000261;West Finchley;Transport for London;51.609485709772600000;-.188468869728233300;4;1;133;0;0
Tfl1000262;Tfl1000262;West Ham;Transport for London;51.528181772941785000;.005039507096672237;5;0;133;0;0
Tfl1000263;Tfl1000263;West Hampstead;Transport for London;51.546701979094905000;-.190749850256434300;6;4;133;0;0
Tfl1000264;Tfl1000264;West Harrow;Transport for London;51.579778193709345000;-.352920630985434100;7;2;133;0;0
Tfl1000265;Tfl1000265;West Kensington;Transport for London;51.490491685732100000;-.206477114705301220;0;7;133;0;0
Tfl1000267;Tfl1000267;West Ruislip;Transport for London;51.569528862920430000;-.437886436759924000;1;5;133;0;0
Tfl1000259;Tfl1000259;Westbourne Park;Transport for London;51.520920849526010000;-.200883771467904430;2;1;133;0;0
Tfl1000266;Tfl1000266;Westminster;Transport for London;51.501084583446460000;-.124818265200698930;3;6;133;0;0
Tfl1000269;Tfl1000269;White City;Transport for London;51.511978113587034000;-.224254319227984920;4;6;133;0;0
Tfl1000268;Tfl1000268;Whitechapel;Transport for London;51.519455246890790000;-.059984982962259466;5;0;133;0;0
Tfl1000270;Tfl1000270;Willesden Green;Transport for London;51.549308888247985000;-.222410152080799300;6;5;133;0;0
Tfl1000273;Tfl1000273;Wimbledon Park;Transport for London;51.434464186025440000;-.199595272173123170;7;5;133;0;0
Tfl1000275;Tfl1000275;Wood Green;Transport for London;51.597476031308410000;-.109626380548445640;0;2;133;0;0
Tfl1000274;Tfl1000274;Woodford;Transport for London;51.607033365181010000;.034037144154079255;1;4;133;0;0
Tfl1000276;Tfl1000276;Woodside Park;Transport for London;51.617811407382945000;-.185421027508838540;2;7;133;0;0
Tfl1002003;Tfl1002003;All Saints;Transport for London;51.511010078082435000;-.012751749577122285;3;5;133;0;0
Tfl1002011;Tfl1002011;Beckton;Transport for London;51.515133282604730000;.060942442359961540;4;3;133;0;0
Tfl1002012;Tfl1002012;Beckton Park;Transport for London;51.508943792676580000;.054897746701542370;5;1;133;0;0
Tfl1002018;Tfl1002018;Blackwall;Transport for London;51.508216114618390000;-.007108496961494498;6;7;133;0;0
Tfl1002019;Tfl1002019;Bow Church;Transport for London;51.527333106708156000;-.020691424393872180;7;1;133;0;0
Tfl1000032;Tfl1000032;Bromley-By-Bow;Transport for London;51.524769937557340000;-.011661937058285864;0;6;133;0;0
Tfl1002025;Tfl1002025;Crossharbour & London Arena;Transport for London;51.495698374116300000;-.014614325661385941;1;4;133;0;0
Tfl1001079;Tfl1001079;Custom House;Transport for London;51.509543816964380000;.027684411363851222;2;6;133;0;0
Tfl1002027;Tfl1002027;Cutty Sark;Transport for London;51.481694371850814000;-.010858772708086980;3;5;133;0;0
Tfl1002028;Tfl1002028;Cyprus;Transport for London;51.508791930274770000;.063538519717122620;4;2;133;0;0
Tfl1002029;Tfl1002029;Deptford Bridge;Transport for London;51.474284721273506000;-.021550621322944774;5;4;133;0;0
Tfl1002030;Tfl1002030;Devons Road;Transport for London;51.522175080544790000;-.017224616322978142;6;1;133;0;0
Tfl1002033;Tfl1002033;East India;Transport for London;51.509041249107980000;-.002748663563422358;7;1;133;0;0
Tfl1000071;Tfl1000071;Edgware Road Bakerloo;Transport for London;51.520183893832000000;-.170135073011915440;0;5;133;0;0
Tfl1000072;Tfl1000072;Edgware Road Circle;Transport for London;51.519920474367346000;-.167666130737583900;1;4;133;0;0
Tfl1002035;Tfl1002035;Elverson Road;Transport for London;51.468819427590320000;-.017467307436164158;2;7;133;0;0
Tfl1002039;Tfl1002039;Gallions Reach;Transport for London;51.509538091545025000;.072220032947865110;3;1;133;0;0
Tfl1001123;Tfl1001123;Greenwich;Transport for London;51.477757816350250000;-.014198816568398007;4;5;133;0;0
Tfl1000094;Tfl1000094;Gunnersbury;Transport for London;51.491793104326040000;-.275175034795658400;5;0;133;0;0
Tfl1000097;Tfl1000097;Hammersmith;Transport for London;51.493497772006556000;-.224930071064953470;6;1;133;0;0
Tfl1000096;Tfl1000096;Hammersmith (D & P);Transport for London;51.492569079748954000;-.222401730524214160;7;2;133;0;0
Tfl1000100;Tfl1000100;Harlesden;Transport for London;51.536192910154740000;-.257502755154927540;0;1;133;0;0
Tfl1000101;Tfl1000101;Harrow & Wealdstone;Transport for London;51.592208827964880000;-.335231166241641700;1;4;133;0;0
Tfl1000102;Tfl1000102;Harrow on the Hill;Transport for London;51.579328867281140000;-.337015904256826800;2;4;133;0;0
Tfl1000105;Tfl1000105;Heathrow Terminals 1, 2, 3;Transport for London;51.471219210060410000;-.452439130961683100;3;5;133;0;0
Tfl1002046;Tfl1002046;Heron Quays;Transport for London;51.503067915299190000;-.021744064999687465;4;7;133;0;0
Tfl1002048;Tfl1002048;Island Gardens;Transport for London;51.486671636732005000;-.009489509781986224;5;3;133;0;0
Tfl1000122;Tfl1000122;Kensal Green;Transport for London;51.530457666116990000;-.224716964703163850;6;2;133;0;0
Tfl1000170;Tfl1000170;Kensington (Olympia);Transport for London;51.497809167384910000;-.210382523117471270;7;3;133;0;0
Tfl1000124;Tfl1000124;Kenton;Transport for London;51.581788462601410000;-.317164405857978500;0;6;133;0;0
Tfl1000125;Tfl1000125;Kew Gardens;Transport for London;51.477029930152850000;-.285252328214689150;1;4;133;0;0
Tfl1000129;Tfl1000129;King's Cross St. Pancras;Transport for London;51.530397237917526000;-.123857948142452990;2;5;133;0;0
Tfl1001177;Tfl1001177;Lewisham;Transport for London;51.466074537491664000;-.014706587477352798;3;6;133;0;0
Tfl1001180;Tfl1001180;Limehouse;Transport for London;51.512498517496160000;-.039712576574314410;4;5;133;0;0
Tfl1002061;Tfl1002061;Mudchute;Transport for London;51.490364179631120000;-.015091214701629630;5;0;133;0;0
Tfl1000155;Tfl1000155;New Cross;Transport for London;51.476674202455730000;-.032594570758595160;6;7;133;0;0
Tfl1000156;Tfl1000156;New Cross Gate;Transport for London;51.475337384701450000;-.040299579158885705;7;5;133;0;0
Tfl1000163;Tfl1000163;North Wembley;Transport for London;51.562490285575436000;-.304155735382629300;0;5;133;0;0
Tfl1002064;Tfl1002064;Poplar;Transport for London;51.507488443277030000;-.017228773736863470;1;7;133;0;0
Tfl1002065;Tfl1002065;Prince Regent;Transport for London;51.509320665460960000;.033295484514232420;2;7;133;0;0
Tfl1002066;Tfl1002066;Pudding Mill Lane;Transport for London;51.534400840867900000;-.013174228379466220;3;4;133;0;0
Tfl1000186;Tfl1000186;Queen's Park;Transport for London;51.534100903446934000;-.204704090234202700;4;0;133;0;0
Tfl1000192;Tfl1000192;Richmond;Transport for London;51.463159640859740000;-.301754217686892100;5;0;133;0;0
Tfl1002070;Tfl1002070;Royal Albert;Transport for London;51.508196344367040000;.046216593557986540;6;2;133;0;0
Tfl1002071;Tfl1002071;Royal Victoria;Transport for London;51.509062110622175000;.018078557359541534;7;5;133;0;0
Tfl1000203;Tfl1000203;Shepherd's Bush Central;Transport for London;51.505560868490754000;-.226305459017774930;0;7;133;0;0
Tfl1000213;Tfl1000213;South Kenton;Transport for London;51.570171686871360000;-.308588675020215030;1;5;133;0;0
Tfl1002074;Tfl1002074;South Quay;Transport for London;51.500532011008650000;-.019101694079593993;2;4;133;0;0
Tfl1000221;Tfl1000221;St. James's Park;Transport for London;51.499345456140375000;-.134183744115531720;3;6;133;0;0
Tfl1000222;Tfl1000222;St. John's Wood;Transport for London;51.534564516315330000;-.174172356336729750;4;3;133;0;0
Tfl1000225;Tfl1000225;St. Paul's;Transport for London;51.514801296733296000;-.097573654477604190;5;7;133;0;0
Tfl1000224;Tfl1000224;Stonebridge Park;Transport for London;51.543922285834710000;-.275409247579834260;6;1;133;0;0
Tfl1002076;Tfl1002076;Tower Gateway;Transport for London;51.510566638763080000;-.074530960965560940;7;4;133;0;0
Tfl1000256;Tfl1000256;Wembley Central;Transport for London;51.552329965978000000;-.296859445373195800;0;7;133;0;0
Tfl1002084;Tfl1002084;West India Quay;Transport for London;51.506638439327860000;-.020148081137071500;1;0;133;0;0
Tfl1002083;Tfl1002083;Westferry;Transport for London;51.509431782335305000;-.025791956499847963;2;3;133;0;0
Tfl1000271;Tfl1000271;Willesden Junction;Transport for London;51.532191497103640000;-.244288894517034600;3;5;133;0;0
Tfl1000272;Tfl1000272;Wimbledon;Transport for London;51.421383719531770000;-.206381586903591980;4;5;133;0;0
Tfl2000001;Tfl2000001;Shepherd's Bush Market;Transport for London;51.505579;-0.226375;5;3;133;0;0
Tfl2000002;Tfl2000002;Wood Lane;Transport for London;51.509669;-0.22453;6;7;133;0;0
Tfl2000003;Tfl2000003;Heathrow Terminal 5;Transport for London;51.470052;-0.49056;7;2;133;0;0
Tfl2000004;Tfl2000004;Shoreditch;Transport for London;51.523375;-0.075246;0;2;133;0;0
Tfl2000005;Tfl2000005;Langdon Park;Transport for London;51.515172;-0.01415;1;5;133;0;0
Tfl2000006;Tfl2000006;Stratford International;Transport for London;51.545265;-0.009638;2;1;133;0;0
Tfl2000007;Tfl2000007;Stratford High Street;Transport for London;51.538196;-0.001078;3;0;133;0;0
Tfl2000008;Tfl2000008;Abbey Road;Transport for London;51.531926;0.003737;4;6;133;0;0
Tfl2000009;Tfl2000009;Star Lane;Transport for London;51.520786;0.004156;5;6;133;0;0
Tfl2000010;Tfl2000010;West Silvertown;Transport for London;51.502838;0.02246;6;5;133;0;0
Tfl2000011;Tfl2000011;Pontoon Dock;Transport for London;51.502212;0.032115;7;3;133;0;0
Tfl2000012;Tfl2000012;London City Airport;Transport for London;51.503416;0.048739;0;3;133;0;0
Tfl2000013;Tfl2000013;King George V;Transport for London;51.502003;0.062624;1;6;133;0;0
Tfl2000014;Tfl2000014;Woolwich Arsenal;Transport for London;51.490009;0.069127;2;5;133;0;0
