idExterne;nom;type;ordre;couleur;vCreation;vMaj;vSuppression
Ligne_MEL_M1;Métro 1 de Lille;Metro;3312010;#FFCF29;126;169;0
Ligne_MEL_M2;Métro 2 de Lille;Metro;3312020;#F2653F;126;169;0
Ligne_MEL_TR;Tram R de Lille;Tramway;3327800;#00AE6D;126;169;0
Ligne_MEL_TT;Tram T de Lille;Tramway;3328000;#F79256;126;169;0
SNCF_HautsFrance_K10;K10;Train;3371100;#BF005F;163;169;0
SNCF_HautsFrance_K11;K11;Train;3371110;#BF005F;164;169;0
SNCF_HautsFrance_K12;K12;Train;3371120;#BF005F;163;169;0
SNCF_HautsFrance_K13;K13;Train;3371130;#BF005F;163;169;0
SNCF_HautsFrance_K14;K14;Train;3371140;#BF005F;164;169;0
SNCF_HautsFrance_K15;K15;Train;3371150;#BF005F;163;169;0
SNCF_HautsFrance_K16;K16;Train;3371160;#BF005F;169;0;0
SNCF_HautsFrance_K20;K20;Train;3371200;#BF005F;164;169;0
SNCF_HautsFrance_K21;K21;Train;3371210;#BF005F;169;0;0
SNCF_HautsFrance_K40;K40;Train;3371400;#BF005F;169;0;0
SNCF_HautsFrance_K43;K43;Train;3371430;#BF005F;169;0;0
SNCF_HautsFrance_K44;K44;Train;3371440;#BF005F;164;169;0
SNCF_HautsFrance_K45;K45;Train;3371450;#BF005F;164;169;0
SNCF_HautsFrance_K50;K50;Train;3371500;#BF005F;169;0;0
SNCF_HautsFrance_K51;K51;Train;3371510;#BF005F;169;0;0
SNCF_HautsFrance_K52;K52;Train;3371520;#BF005F;169;0;0
SNCF_HautsFrance_K60;K60;Train;3371600;#BF005F;164;169;0
SNCF_HautsFrance_K61;K61;Train;3371610;#BF005F;164;169;0
SNCF_HautsFrance_K70;K70;Train;3371700;#BF005F;169;0;0
SNCF_HautsFrance_K71;K71;Train;3371710;#BF005F;169;0;0
SNCF_HautsFrance_K80;K80;Train;3371800;#BF005F;169;0;0
SNCF_HautsFrance_K82;K82;Train;3371820;#BF005F;169;0;0
SNCF_HautsFrance_K90+;K90+;Train;3371900;#6E1E78;169;0;0
SNCF_HautsFrance_K92+;K92+;Train;3371920;#6E1E78;169;0;0
SNCF_HautsFrance_K94+;K94+;Train;3371940;#6E1E78;169;0;0
SNCF_HautsFrance_C10;C10;Train;3372100;#0749FF;163;169;0
SNCF_HautsFrance_C11;C11;Train;3372110;#0749FF;163;169;0
SNCF_HautsFrance_C12;C12;Train;3372120;#0749FF;163;169;0
SNCF_HautsFrance_C13;C13;Train;3372130;#0749FF;163;169;0
SNCF_HautsFrance_C14;C14;Train;3372140;#0749FF;163;169;0
SNCF_HautsFrance_C17;C17;Train;3372170;#0749FF;163;169;0
SNCF_HautsFrance_C40;C40;Train;3372400;#0749FF;164;169;0
SNCF_HautsFrance_C41;C41;Train;3372410;#0749FF;169;0;0
SNCF_HautsFrance_C50;C50;Train;3372500;#0749FF;169;0;0
SNCF_HautsFrance_C51;C51;Train;3372510;#0749FF;169;0;0
SNCF_HautsFrance_C60;C60;Train;3372600;#0749FF;164;169;0
SNCF_HautsFrance_C70;C70;Train;3372700;#0749FF;169;0;0
SNCF_HautsFrance_P10;P10;Train;3373100;#006600;163;169;0
SNCF_HautsFrance_P14;P14;Train;3373140;#006600;164;169;0
SNCF_HautsFrance_P15;P15;Train;3373150;#006600;163;169;0
SNCF_HautsFrance_P20;P20;Train;3373200;#006600;164;169;0
SNCF_HautsFrance_P21;P21;Train;3373210;#006600;164;169;0
SNCF_HautsFrance_P22;P22;Train;3373220;#006600;164;169;0
SNCF_HautsFrance_P23;P23;Train;3373230;#006600;163;169;0
SNCF_HautsFrance_P24;P24;Train;3373240;#006600;163;169;0
SNCF_HautsFrance_P30;P30;Train;3373300;#006600;163;169;0
SNCF_HautsFrance_P32;P32;Train;3373320;#006600;163;169;0
SNCF_HautsFrance_P40;P40;Train;3373400;#006600;164;169;0
SNCF_HautsFrance_P42;P42;Train;3373420;#006600;169;0;0
SNCF_HautsFrance_P43;P43;Train;3373430;#006600;169;0;0
SNCF_HautsFrance_P44;P44;Train;3373440;#006600;164;169;0
SNCF_HautsFrance_P45;P45;Train;3373450;#006600;163;169;0
SNCF_HautsFrance_P51;P51;Train;3373510;#006600;169;0;0
SNCF_HautsFrance_P52;P52;Train;3373520;#006600;169;0;0
SNCF_HautsFrance_P53;P53;Train;3373530;#006600;169;0;0
SNCF_HautsFrance_P54;P54;Train;3373540;#006600;169;0;0
SNCF_HautsFrance_P60;P60;Train;3373600;#006600;164;169;0
SNCF_HautsFrance_P61;P61;Train;3373610;#006600;164;169;0
SNCF_HautsFrance_P62;P62;Train;3373620;#006600;164;169;0
SNCF_HautsFrance_P63;P63;Train;3373630;#006600;169;0;0
SNCF_HautsFrance_P70;P70;Train;3373700;#006600;169;0;0
SNCF_HautsFrance_P71;P71;Train;3373710;#006600;169;0;0
SNCF_HautsFrance_P72;P72;Train;3373720;#006600;169;0;0
SNCF_HautsFrance_P73;P73;Train;3373730;#006600;169;0;0
SNCF_HautsFrance_P80;P80;Train;3373800;#006600;169;0;0
SNCF_HautsFrance_P81;P81;Train;3373810;#006600;169;0;0
SNCF_HautsFrance_U;Grandes Lignes;Train;3916000;#000000;106;169;0
